<svg xmlns="http://www.w3.org/2000/svg" viewBox="0 0 1024 1024" width="1024" height="1024">
    <defs>
        <clipPath clipPathUnits="userSpaceOnUse" id="cp1">
            <path d="M0 0L1024 0L1024 1024L0 1024Z" />
        </clipPath>
    </defs>
    <style>
        tspan { white-space:pre }
        .shp0 { fill: #000 }
    </style>
    <g id="Page 1" clip-path="url(#cp1)">
        <path id="Path 1" fill-rule="evenodd" class="shp0" d="M996.82 482.89L498.38 981.33L725.31 981.34C737.09 981.34 746.64 990.89 746.64 1002.67C746.64 1014.45 737.09 1024 725.31 1024L417.2 1024C417.17 1024 417.15 1024 417.12 1024C417.09 1024 417.07 1024 417.04 1024L298.66 1024C286.88 1024 277.33 1014.44 277.33 1002.66C277.33 990.88 286.88 981.33 298.66 981.33L335.87 981.33L67.15 712.61C67.14 712.61 67.14 712.6 67.14 712.6C67.13 712.6 67.13 712.59 67.13 712.59L27.14 672.61C9.64 655.11 0 631.76 0 606.88C0 581.99 9.64 558.65 27.14 541.15L541.11 27.18C558.61 9.68 581.95 0.05 606.84 0.05C631.72 0.05 655.06 9.69 672.57 27.19L996.82 351.44C1033.06 387.68 1033.06 446.65 996.82 482.89ZM966.65 381.6L787.97 202.93L294.38 696.53C290.21 700.69 284.75 702.78 279.29 702.78C273.83 702.78 268.37 700.69 264.21 696.53C255.88 688.2 255.88 674.69 264.21 666.36L757.8 172.76L642.4 57.36C632.95 47.91 620.32 42.71 606.84 42.71C593.35 42.71 580.72 47.91 571.27 57.35L57.31 571.32C47.87 580.76 42.67 593.39 42.67 606.88C42.67 620.37 47.87 633 57.31 642.44L82.22 667.35L575.81 173.76C584.14 165.42 597.65 165.42 605.98 173.75C614.31 182.08 614.31 195.59 605.98 203.92L112.39 697.52L381.56 966.69C390.99 976.12 403.58 981.31 417.04 981.33L417.2 981.33C430.66 981.31 443.26 976.12 452.68 966.69L966.65 452.72C986.25 433.12 986.26 401.21 966.65 381.6ZM525.6 646.32L357.73 814.19C353.57 818.35 348.11 820.44 342.65 820.44C337.19 820.44 331.73 818.35 327.56 814.19C319.23 805.85 319.23 792.35 327.56 784.02L495.43 616.15C503.77 607.82 517.27 607.82 525.6 616.15C533.93 624.48 533.93 637.99 525.6 646.32ZM486.92 775.51C495.25 783.84 495.25 797.35 486.92 805.68L418.07 874.53C413.9 878.69 408.45 880.77 402.98 880.77C397.53 880.77 392.07 878.69 387.9 874.53C379.57 866.19 379.57 852.69 387.9 844.36L456.75 775.51C465.09 767.17 478.59 767.17 486.92 775.51ZM550.27 712.16C558.6 720.49 558.6 733.99 550.27 742.32L541.22 751.37C537.06 755.54 531.6 757.62 526.14 757.62C520.68 757.62 515.22 755.54 511.06 751.37C502.73 743.04 502.73 729.53 511.06 721.2L520.11 712.15C528.44 703.82 541.95 703.83 550.27 712.16Z" />
        <path id="Path 2" fill-rule="evenodd" class="shp0" d="M874.48 387.95C882.81 396.28 882.81 409.79 874.48 418.12L783.98 508.62C779.81 512.78 774.35 514.87 768.89 514.87C763.43 514.87 757.97 512.79 753.81 508.62L693.47 448.29C689.47 444.29 687.22 438.86 687.22 433.2C687.22 427.54 689.47 422.12 693.47 418.12L783.98 327.61C787.98 323.61 793.4 321.36 799.06 321.36C804.72 321.36 810.15 323.61 814.15 327.61L874.48 387.95ZM829.23 403.03L799.06 372.86L738.72 433.2L768.89 463.37L829.23 403.03ZM625.6 154.15C617.26 145.82 617.26 132.31 625.59 123.98L634.64 114.93C642.97 106.6 656.48 106.59 664.81 114.92C673.14 123.25 673.14 136.76 664.81 145.09L655.76 154.14C651.6 158.31 646.14 160.4 640.68 160.4C635.22 160.4 629.76 158.32 625.6 154.15ZM244.6 716.14C252.93 724.47 252.93 737.98 244.6 746.31L235.55 755.36C231.38 759.52 225.92 761.6 220.46 761.6C215.01 761.6 209.55 759.52 205.38 755.36C197.05 747.02 197.05 733.51 205.38 725.19L214.43 716.14C222.76 707.81 236.27 707.81 244.6 716.14Z" />
    </g>
</svg>
